first_name,last_name,age,hobbies
Rafihatu,Bello,20,teaching
Germaine,Oyere,20,studying
Joonas,Ole,20,studying
Anneli,Silbaum,20,studying
Siim,Kaveats,20,studying
Mariel,Duran,20,studying
Volodymyr,Panov,20,studying
Randar,Maksim,20,studying
Sarbar,Rustamqul,20,studying
Madis,Jarve,20,studying
Raivo,Sulla,20,studying
Silver,Zimm,20,studying
Kalai,Tamil,20,studying
Robert,Matt,20,studying
Kadri,Schutting,20,studying
Erle,Jusar,20,studying
Kristo,Tank,20,studying
Khrystyna,Lytovchenko,20,studying
Example,Class,103,existing
